\relax 
\@writefile{toc}{\contentsline {section}{\numberline {1}Presentation}{1}{}\protected@file@percent }
\@writefile{toc}{\contentsline {subsection}{\numberline {1.1}The model}{1}{}\protected@file@percent }
\@writefile{lot}{\contentsline {table}{\numberline {1}{\ignorespaces Physical properties of the plane.}}{1}{}\protected@file@percent }
\@writefile{toc}{\contentsline {subsection}{\numberline {1.2}Equations}{1}{}\protected@file@percent }
\@writefile{toc}{\contentsline {subsection}{\numberline {1.3}Steps}{2}{}\protected@file@percent }
\@writefile{toc}{\contentsline {section}{\numberline {2}Control Limits / Saturation}{2}{}\protected@file@percent }
\@writefile{toc}{\contentsline {section}{\numberline {3}Intermediate Variables}{3}{}\protected@file@percent }
\@writefile{toc}{\contentsline {section}{\numberline {4}Nondimensional Aerodynamic Force Coefficients in $F_s$}{3}{}\protected@file@percent }
\@writefile{toc}{\contentsline {subsection}{\numberline {4.1}Lift}{3}{}\protected@file@percent }
\@writefile{toc}{\contentsline {subsubsection}{\numberline {4.1.1}Wing/body}{4}{}\protected@file@percent }
\@writefile{lot}{\contentsline {table}{\numberline {2}{\ignorespaces Lift Coefficients}}{4}{}\protected@file@percent }
\@writefile{lof}{\contentsline {figure}{\numberline {1}{\ignorespaces Lift coefficient for the RCAM model}}{4}{}\protected@file@percent }
\@writefile{toc}{\contentsline {subsubsection}{\numberline {4.1.2}Tail}{4}{}\protected@file@percent }
\@writefile{toc}{\contentsline {subsection}{\numberline {4.2}Drag}{5}{}\protected@file@percent }
\@writefile{lof}{\contentsline {figure}{\numberline {2}{\ignorespaces Drag related to alpha}}{5}{}\protected@file@percent }
\@writefile{toc}{\contentsline {subsection}{\numberline {4.3}SideForce Coefficient}{5}{}\protected@file@percent }
\@writefile{toc}{\contentsline {subsection}{\numberline {4.4}The Coefficients in the Wind Frame}{6}{}\protected@file@percent }
\@writefile{toc}{\contentsline {section}{\numberline {5}Aerodynamic Force in $F_b$}{6}{}\protected@file@percent }
\@writefile{toc}{\contentsline {section}{\numberline {6}Nondimensional aerodynamic Moment Coefficients abot AC in $F_b$}{6}{}\protected@file@percent }
\@writefile{toc}{\contentsline {section}{\numberline {7}Aerodynamic Moments about AC in $F_b$}{7}{}\protected@file@percent }
\@writefile{toc}{\contentsline {section}{\numberline {8}Aerodynamic Moments about CoG in $F_b$}{7}{}\protected@file@percent }
\@writefile{lot}{\contentsline {table}{\numberline {3}{\ignorespaces CG limits.}}{8}{}\protected@file@percent }
\@writefile{toc}{\contentsline {section}{\numberline {9}Propulsion Effects}{8}{}\protected@file@percent }
\@writefile{lot}{\contentsline {table}{\numberline {4}{\ignorespaces Engine Parameters.}}{9}{}\protected@file@percent }
\@writefile{toc}{\contentsline {section}{\numberline {10}Explicit First Order Equations}{9}{}\protected@file@percent }
\gdef \@abspage@last{9}
