\relax 
\@writefile{toc}{\contentsline {section}{\numberline {1}Geometrical concepts}{1}{}\protected@file@percent }
\@writefile{toc}{\contentsline {subsection}{\numberline {1.1}Concepts}{1}{}\protected@file@percent }
\@writefile{toc}{\contentsline {subsection}{\numberline {1.2}Ellipsoid WGS\_84}{1}{}\protected@file@percent }
\@writefile{toc}{\contentsline {section}{\numberline {2}Geodetic Cruvature Radii}{1}{}\protected@file@percent }
\@writefile{toc}{\contentsline {section}{\numberline {3}Position on the Earth Centre Earth Fixed Frame}{1}{}\protected@file@percent }
\@writefile{toc}{\contentsline {section}{\numberline {4}Transformation Equations}{1}{}\protected@file@percent }
\gdef \@abspage@last{1}
