\relax 
\@writefile{toc}{\contentsline {section}{\numberline {1}Considerations}{1}{}\protected@file@percent }
\@writefile{toc}{\contentsline {subsection}{\numberline {1.1}About the Frames}{1}{}\protected@file@percent }
\@writefile{toc}{\contentsline {section}{\numberline {2}Equations of Movement}{1}{}\protected@file@percent }
\@writefile{toc}{\contentsline {subsubsection}{\numberline {2.0.1}Acceleration}{1}{}\protected@file@percent }
\@writefile{toc}{\contentsline {subsubsection}{\numberline {2.0.2}Translational Equation of Movement}{1}{}\protected@file@percent }
\@writefile{toc}{\contentsline {subsubsection}{\numberline {2.0.3}Rotational Equation of Movement}{2}{}\protected@file@percent }
\@writefile{toc}{\contentsline {subsection}{\numberline {2.1}Velocity}{2}{}\protected@file@percent }
\@writefile{toc}{\contentsline {subsubsection}{\numberline {2.1.1}Rotation}{2}{}\protected@file@percent }
\@writefile{toc}{\contentsline {subsubsection}{\numberline {2.1.2}Translation}{3}{}\protected@file@percent }
\@writefile{toc}{\contentsline {section}{\numberline {3}Summary}{3}{}\protected@file@percent }
\@writefile{toc}{\contentsline {subsection}{\numberline {3.1}Mathematics}{3}{}\protected@file@percent }
\@writefile{toc}{\contentsline {subsection}{\numberline {3.2}Matlab}{3}{}\protected@file@percent }
\@writefile{toc}{\contentsline {section}{\numberline {4}Inputs}{4}{}\protected@file@percent }
\@writefile{toc}{\contentsline {subsection}{\numberline {4.1}Force}{4}{}\protected@file@percent }
\@writefile{toc}{\contentsline {subsubsection}{\numberline {4.1.1}Gravity}{4}{}\protected@file@percent }
\@writefile{toc}{\contentsline {subsubsection}{\numberline {4.1.2}Engine}{4}{}\protected@file@percent }
\@writefile{toc}{\contentsline {subsubsection}{\numberline {4.1.3}Aerodynamics}{5}{}\protected@file@percent }
\@writefile{toc}{\contentsline {paragraph}{Lift}{5}{}\protected@file@percent }
\@writefile{toc}{\contentsline {subsection}{\numberline {4.2}Moments}{5}{}\protected@file@percent }
\@writefile{toc}{\contentsline {subsubsection}{\numberline {4.2.1}Inertia}{5}{}\protected@file@percent }
\@writefile{toc}{\contentsline {subsubsection}{\numberline {4.2.2}Cross Connections}{6}{}\protected@file@percent }
\@writefile{toc}{\contentsline {section}{\numberline {5}Wind and Stability axes}{6}{}\protected@file@percent }
\@writefile{lof}{\contentsline {figure}{\numberline {1}{\ignorespaces Wind and stability axes.}}{6}{}\protected@file@percent }
\@writefile{toc}{\contentsline {subsubsection}{\numberline {5.0.1}The Angle of Attack}{6}{}\protected@file@percent }
\@writefile{lof}{\contentsline {figure}{\numberline {2}{\ignorespaces Angle of attack in relation to speed.}}{7}{}\protected@file@percent }
\@writefile{toc}{\contentsline {subsubsection}{\numberline {5.0.2}The Sideslip}{7}{}\protected@file@percent }
\@writefile{toc}{\contentsline {subsection}{\numberline {5.1}Interframe Conversion}{7}{}\protected@file@percent }
\@writefile{toc}{\contentsline {subsubsection}{\numberline {5.1.1}Stability to Body Frame}{7}{}\protected@file@percent }
\@writefile{lof}{\contentsline {figure}{\numberline {3}{\ignorespaces Sidesleep.}}{8}{}\protected@file@percent }
\@writefile{toc}{\contentsline {subsubsection}{\numberline {5.1.2}Stability to Wind Frame}{8}{}\protected@file@percent }
\@writefile{toc}{\contentsline {subsubsection}{\numberline {5.1.3}Wind to Body to Wind}{8}{}\protected@file@percent }
\@writefile{toc}{\contentsline {subsection}{\numberline {5.2}Airspeed to Body components of velocity}{9}{}\protected@file@percent }
\gdef \@abspage@last{9}
